<?xml version="1.0" encoding="UTF-8" standalone="no"?>
<!-- Created with Inkscape (http://www.inkscape.org/) -->

<svg
   xmlns:dc="http://purl.org/dc/elements/1.1/"
   xmlns:cc="http://creativecommons.org/ns#"
   xmlns:rdf="http://www.w3.org/1999/02/22-rdf-syntax-ns#"
   xmlns:svg="http://www.w3.org/2000/svg"
   xmlns="http://www.w3.org/2000/svg"
   xmlns:sodipodi="http://sodipodi.sourceforge.net/DTD/sodipodi-0.dtd"
   xmlns:inkscape="http://www.inkscape.org/namespaces/inkscape"
   width="100"
   height="100"
   viewBox="0 0 100 99.999998"
   id="svg2"
   version="1.1"
   inkscape:version="0.91 r13725"
   sodipodi:docname="omnibly-white.svg">
  <defs
     id="defs4" />
  <sodipodi:namedview
     id="base"
     pagecolor="#ffffff"
     bordercolor="#666666"
     borderopacity="1.0"
     inkscape:pageopacity="0.0"
     inkscape:pageshadow="2"
     inkscape:zoom="3.959798"
     inkscape:cx="47.459437"
     inkscape:cy="56.242754"
     inkscape:document-units="px"
     inkscape:current-layer="layer1"
     showgrid="false"
     fit-margin-top="0"
     fit-margin-left="0"
     fit-margin-right="0"
     fit-margin-bottom="0"
     units="px"
     inkscape:window-width="1920"
     inkscape:window-height="1027"
     inkscape:window-x="-8"
     inkscape:window-y="-8"
     inkscape:window-maximized="1"
     inkscape:object-nodes="true" />
  <metadata
     id="metadata7">
    <rdf:RDF>
      <cc:Work
         rdf:about="">
        <dc:format>image/svg+xml</dc:format>
        <dc:type
           rdf:resource="http://purl.org/dc/dcmitype/StillImage" />
        <dc:title></dc:title>
      </cc:Work>
    </rdf:RDF>
  </metadata>
  <g
     inkscape:label="Layer 1"
     inkscape:groupmode="layer"
     id="layer1"
     transform="translate(-97.730544,-389.87351)">
    <path
       style="opacity:1;fill:#ffffff;fill-opacity:1;fill-rule:evenodd;stroke:none;stroke-width:15;stroke-linecap:round;stroke-linejoin:miter;stroke-miterlimit:4;stroke-dasharray:none;stroke-dashoffset:0;stroke-opacity:1"
       d="M 50 6.1289062 C 39.08725 15.584596 26.424529 21.006793 13.912109 23.507812 C 14.438219 38.238374 10.35134 51.577861 5 62.556641 C 14.79652 69.099971 22.481026 77.266644 29.972656 93.871094 C 45.888256 90.390494 58.359684 90.920704 70.027344 93.871094 C 74.725224 82.052684 81.26947 71.656951 95 62.556641 C 87.88694 49.348901 85.693111 35.662802 86.087891 23.507812 C 73.438961 20.637973 61.05623 15.928396 50 6.1289062 z M 50 22.580078 C 52.159419 24.494041 54.40011 26.096562 56.701172 27.451172 C 57.621608 27.992996 58.551658 28.496677 59.490234 28.962891 C 61.836644 30.12848 64.234513 31.069771 66.666016 31.849609 C 66.666598 31.849796 66.667386 31.849422 66.667969 31.849609 C 67.63998 32.161322 68.618519 32.446996 69.599609 32.710938 C 70.581307 32.975031 71.56649 33.217199 72.554688 33.441406 C 72.523846 34.391014 72.518447 35.354952 72.541016 36.332031 C 72.619907 39.752382 73.043336 43.325701 73.933594 46.947266 C 74.060743 47.464541 74.197205 47.981075 74.34375 48.5 C 74.49045 49.019524 74.645646 49.538031 74.8125 50.058594 C 74.979153 50.578554 75.156279 51.098759 75.34375 51.619141 C 75.906315 53.180847 76.563307 54.742417 77.326172 56.296875 C 77.580364 56.814837 77.847146 57.331729 78.125 57.847656 C 76.515952 58.914096 75.06526 60.008888 73.75 61.132812 C 72.87316 61.882095 72.05553 62.644708 71.292969 63.419922 C 70.911688 63.807529 70.544608 64.19765 70.189453 64.591797 C 69.124058 65.774257 68.172088 66.986503 67.3125 68.228516 C 66.452912 69.470529 65.686076 70.742328 64.988281 72.044922 C 64.057889 73.781714 63.251623 75.573297 62.517578 77.419922 C 58.871438 76.497922 55.09955 75.953533 50.996094 75.912109 C 48.94417 75.891399 46.808067 75.996155 44.564453 76.242188 C 42.321549 76.48823 39.968544 76.87623 37.482422 77.419922 C 32.800152 67.042142 27.99783 61.937216 21.875 57.847656 C 23.756581 53.987411 25.387649 49.660991 26.396484 44.974609 C 26.508575 44.453971 26.612776 43.929744 26.708984 43.400391 C 26.805312 42.870421 26.893275 42.337236 26.972656 41.798828 C 27.05196 41.261057 27.122217 40.719721 27.183594 40.173828 C 27.429119 37.990286 27.527517 35.743054 27.445312 33.441406 C 29.400378 33.050621 31.360366 32.545833 33.308594 31.916016 C 34.282708 31.601107 35.255255 31.255699 36.220703 30.876953 C 41.047892 28.983115 45.737206 26.273709 50 22.580078 z "
       transform="translate(97.730544,389.87351)"
       id="path8077" />
  </g>
</svg>
